…
``` r
eval_df %>% count(registered_charity_number, .pred_class)
```

    ## # A tibble: 20,766 x 3
    ##    registered_charity_number .pred_class                   n
    ##                        <int> <fct>                     <int>
    ##  1                    200320 Disability                    4
    ##  2                    200988 Education/training            1
    ##  3                    200988 Other Charitable Purposes     3
    ##  4                    201355 Disability                    4
    ##  5                    201441 Accommodation/housing         1
    ##  6                    201441 Animals                       1
    ##  7                    201441 Religious Activities          2
    ##  8                    201640 Accommodation/housing         1
    ##  9                    201640 Disability                    1
    ## 10                    201640 Education/training            2
    ## # ... with 20,756 more rows
…
